Extracting data from XML Document
…
# Creating the Publication_type variable using xmlToColumn() function.
Publication_type <- xmlToColumn("./Article/PublicationTypeList/PublicationType")

# Using sapply() function to extract only the first element of all elements in the list Publication_type and storing it back as a vector.
Publication_type <- sapply(1:length(Publication_type), function(x) Publication_type[[x]][1])

# Creating the Article_title variable using xmlToColumn() function.
Article_title <- xmlToColumn("./Article/ArticleTitle")

# Using tibble() function to add the specified variables as columns to the publication tibble.
(publication <- tibble(PMID, ISSN, Date_completed, Date_revised, Number_of_authors, Publication_type, Article_title))

## # A tibble: 177 x 7
##       PMID ISSN           Date_completed Date_revised Number_of_authors
##      <int> <chr>          <date>         <date>                   <int>
##  1  973217 0095-3814.1976 1976-12-03     2002-11-13                   1
##  2 1669026 0377-8231.1991 1993-11-15     2008-11-21                  NA
##  3 1875346 0022-2623.1991 1991-09-25     2013-11-21                  10
##  4 5757641 NA.1968        1970-03-22     2003-11-14                   1
##  5 3549656 0021-8820.1987 1987-05-15     2014-11-20                   6
##  6 8119288 0014-2956.1994 1994-04-01     2016-10-17                   2
##  7 8219565 1051-0443.NA   1993-12-08     2016-11-23                   4
##  8 8655018 0017-0011.1996 1996-07-30     2017-03-03                   2
##  9 8863847 0026-895X.1996 1996-11-25     2014-11-20                   5
## 10 9110943 1059-2725.1996 1996-10-23     2011-11-17                   4
## # ... with 167 more rows, and 2 more variables: Publication_type <chr>,
## #   Article_title <chr>
…
# Using sapply() function to extract only the first element of all elements in the variable Language and storing it back as a vector.
Language <- sapply(1:length(Language), function(x) Language[[x]][1])

# Creating the Journal_title variable using xmlToColumn() function.
Journal_title <- xmlToColumn("./Article/Journal/Title")

# Using tibble() function to add the specified variables as columns to the journal tibble.  
journal <- tibble(ISSN, Medium, Publication_year, Publication_season, Language, Journal_title)

# Removing all the ISSN values which are NA using filter() with substring() function and eliminating the duplicate rows from the journal tibble using the unique() function.
(journal <- base::unique(filter(journal, substring(ISSN, 1, 2) != "NA")))

## # A tibble: 150 x 6
##    ISSN   Medium Publication_year Publication_sea~ Language Journal_title 
##    <chr>  <chr>  <chr>            <chr>            <chr>    <chr>         
##  1 0095-~ Print  1976             Fall             eng      Topics in hea~
##  2 0377-~ Print  1991             <NA>             fre      Bulletin et m~
##  3 0022-~ Print  1991             <NA>             eng      Journal of me~
##  4 0021-~ Print  1987             <NA>             eng      The Journal o~
##  5 0014-~ Print  1994             <NA>             eng      European jour~
##  6 1051-~ Print  <NA>             <NA>             eng      Journal of va~
##  7 0017-~ Print  1996             <NA>             pol      Ginekologia p~
##  8 0026-~ Print  1996             <NA>             eng      Molecular pha~
##  9 1059-~ Print  1996             <NA>             eng      The Online jo~
## 10 0009-~ Print  1996             <NA>             eng      Circulation   
## # ... with 140 more rows
…
