Hello, World!
…
In this tutorial we’ll check out some common dplyr functions like filter(), select(), arrange(), mutate(), and summarize(). Let us begin the analysis by answering the following questions: 

Flights going to San Francisco or Oakland:

filter(flights, dest %in% c("SFO" ,"OAK")) # Using %in% operator to identify if the cities belongs to destination column. The %in% operator is similar to the == relational operator.

## # A tibble: 13,643 x 19
##     year month   day dep_time sched_dep_time dep_delay arr_time
##    <int> <int> <int>    <int>          <int>     <dbl>    <int>
##  1  2013     1     1      558            600    - 2.00      923
##  2  2013     1     1      611            600     11.0       945
##  3  2013     1     1      655            700    - 5.00     1037
##  4  2013     1     1      729            730    - 1.00     1049
##  5  2013     1     1      734            737    - 3.00     1047
##  6  2013     1     1      745            745      0        1135
##  7  2013     1     1      746            746      0        1119
##  8  2013     1     1      803            800      3.00     1132
##  9  2013     1     1      826            817      9.00     1145
## 10  2013     1     1     1029           1030    - 1.00     1427
## # ... with 13,633 more rows, and 12 more variables: sched_arr_time <int>,
## #   arr_delay <dbl>, carrier <chr>, flight <int>, tailnum <chr>,
## #   origin <chr>, dest <chr>, air_time <dbl>, distance <dbl>, hour <dbl>,
## #   minute <dbl>, time_hour <dttm>

Flights made in January:

filter(flights, month == 1)

## # A tibble: 27,004 x 19
##     year month   day dep_time sched_dep_time dep_delay arr_time
##    <int> <int> <int>    <int>          <int>     <dbl>    <int>
##  1  2013     1     1      517            515      2.00      830
##  2  2013     1     1      533            529      4.00      850
##  3  2013     1     1      542            540      2.00      923
##  4  2013     1     1      544            545     -1.00     1004
##  5  2013     1     1      554            600     -6.00      812
##  6  2013     1     1      554            558     -4.00      740
##  7  2013     1     1      555            600     -5.00      913
##  8  2013     1     1      557            600     -3.00      709
##  9  2013     1     1      557            600     -3.00      838
## 10  2013     1     1      558            600     -2.00      753
## # ... with 26,994 more rows, and 12 more variables: sched_arr_time <int>,
## #   arr_delay <dbl>, carrier <chr>, flight <int>, tailnum <chr>,
## #   origin <chr>, dest <chr>, air_time <dbl>, distance <dbl>, hour <dbl>,
## #   minute <dbl>, time_hour <dttm>

# Another way to get flights in January if the month column was absent:
filter(flights, time_hour < "2013-02-01") # same result as previous. 

## # A tibble: 27,004 x 19
##     year month   day dep_time sched_dep_time dep_delay arr_time
##    <int> <int> <int>    <int>          <int>     <dbl>    <int>
##  1  2013     1     1      517            515      2.00      830
##  2  2013     1     1      533            529      4.00      850
##  3  2013     1     1      542            540      2.00      923
##  4  2013     1     1      544            545     -1.00     1004
##  5  2013     1     1      554            600     -6.00      812
##  6  2013     1     1      554            558     -4.00      740
##  7  2013     1     1      555            600     -5.00      913
##  8  2013     1     1      557            600     -3.00      709
##  9  2013     1     1      557            600     -3.00      838
## 10  2013     1     1      558            600     -2.00      753
## # ... with 26,994 more rows, and 12 more variables: sched_arr_time <int>,
## #   arr_delay <dbl>, carrier <chr>, flight <int>, tailnum <chr>,
## #   origin <chr>, dest <chr>, air_time <dbl>, distance <dbl>, hour <dbl>,
## #   minute <dbl>, time_hour <dttm>

Flights that departed between midnight and 5 AM:

filter(flights, hour >= 0 & hour <= 5)

## # A tibble: 1,954 x 19
##     year month   day dep_time sched_dep_time dep_delay arr_time
##    <int> <int> <int>    <int>          <int>     <dbl>    <int>
##  1  2013     1     1      517            515      2.00      830
##  2  2013     1     1      533            529      4.00      850
##  3  2013     1     1      542            540      2.00      923
##  4  2013     1     1      544            545     -1.00     1004
##  5  2013     1     1      554            558     -4.00      740
##  6  2013     1     1      559            559      0         702
##  7  2013     1     2      458            500     -2.00      703
##  8  2013     1     2      512            515     -3.00      809
##  9  2013     1     2      535            540     -5.00      831
## 10  2013     1     2      536            529      7.00      840
## # ... with 1,944 more rows, and 12 more variables: sched_arr_time <int>,
## #   arr_delay <dbl>, carrier <chr>, flight <int>, tailnum <chr>,
## #   origin <chr>, dest <chr>, air_time <dbl>, distance <dbl>, hour <dbl>,
## #   minute <dbl>, time_hour <dttm>

Flights where arrival delay was twice as much as departure delay:

filter(flights, arr_delay > (2*dep_delay))

## # A tibble: 95,224 x 19
##     year month   day dep_time sched_dep_time dep_delay arr_time
##    <int> <int> <int>    <int>          <int>     <dbl>    <int>
##  1  2013     1     1      517            515      2.00      830
##  2  2013     1     1      533            529      4.00      850
##  3  2013     1     1      542            540      2.00      923
##  4  2013     1     1      554            558     -4.00      740
##  5  2013     1     1      555            600     -5.00      913
##  6  2013     1     1      558            600     -2.00      753
##  7  2013     1     1      558            600     -2.00      849
##  8  2013     1     1      558            600     -2.00      853
##  9  2013     1     1      558            600     -2.00      924
## 10  2013     1     1      559            600     -1.00      941
## # ... with 95,214 more rows, and 12 more variables: sched_arr_time <int>,
## #   arr_delay <dbl>, carrier <chr>, flight <int>, tailnum <chr>,
## #   origin <chr>, dest <chr>, air_time <dbl>, distance <dbl>, hour <dbl>,
## #   minute <dbl>, time_hour <dttm>

Display the departure delay and arrival delay columns:

select(flights, dep_delay, arr_delay)

## # A tibble: 336,776 x 2
##    dep_delay arr_delay
##        <dbl>     <dbl>
##  1      2.00     11.0 
##  2      4.00     20.0 
##  3      2.00     33.0 
##  4     -1.00    -18.0 
##  5     -6.00    -25.0 
##  6     -4.00     12.0 
##  7     -5.00     19.0 
##  8     -3.00    -14.0 
##  9     -3.00    - 8.00
## 10     -2.00      8.00
## # ... with 336,766 more rows

Which flights were most delayed during departure?

arrange(flights, desc(dep_delay))

## # A tibble: 336,776 x 19
##     year month   day dep_time sched_dep_time dep_delay arr_time
##    <int> <int> <int>    <int>          <int>     <dbl>    <int>
##  1  2013     1     9      641            900      1301     1242
##  2  2013     6    15     1432           1935      1137     1607
##  3  2013     1    10     1121           1635      1126     1239
##  4  2013     9    20     1139           1845      1014     1457
##  5  2013     7    22      845           1600      1005     1044
##  6  2013     4    10     1100           1900       960     1342
##  7  2013     3    17     2321            810       911      135
##  8  2013     6    27      959           1900       899     1236
##  9  2013     7    22     2257            759       898      121
## 10  2013    12     5      756           1700       896     1058
## # ... with 336,766 more rows, and 12 more variables: sched_arr_time <int>,
## #   arr_delay <dbl>, carrier <chr>, flight <int>, tailnum <chr>,
## #   origin <chr>, dest <chr>, air_time <dbl>, distance <dbl>, hour <dbl>,
## #   minute <dbl>, time_hour <dttm>

Compute speed in mph from time(in minutes) and distance(in miles). Which flight flew the fastest?

mutate(flights, speed = distance/(air_time/60)) %>%
  arrange(desc(speed)) # The "%>%" (pipe operator) passes resulting data from the command before to the one after. So after adding the new columns, arrange() function will sort the resulting dataframe in descending order.

## # A tibble: 336,776 x 20
##     year month   day dep_time sched_dep_time dep_delay arr_time
##    <int> <int> <int>    <int>          <int>     <dbl>    <int>
##  1  2013     5    25     1709           1700      9.00     1923
##  2  2013     7     2     1558           1513     45.0      1745
##  3  2013     5    13     2040           2025     15.0      2225
##  4  2013     3    23     1914           1910      4.00     2045
##  5  2013     1    12     1559           1600    - 1.00     1849
##  6  2013    11    17      650            655    - 5.00     1059
##  7  2013     2    21     2355           2358    - 3.00      412
##  8  2013    11    17      759            800    - 1.00     1212
##  9  2013    11    16     2003           1925     38.0        17
## 10  2013    11    16     2349           2359    -10.0       402
## # ... with 336,766 more rows, and 13 more variables: sched_arr_time <int>,
## #   arr_delay <dbl>, carrier <chr>, flight <int>, tailnum <chr>,
## #   origin <chr>, dest <chr>, air_time <dbl>, distance <dbl>, hour <dbl>,
## #   minute <dbl>, time_hour <dttm>, speed <dbl>

Add a new variable that shows how much time was made up or lost in flight:

mutate(flights, delta = dep_delay - arr_delay)

## # A tibble: 336,776 x 20
##     year month   day dep_time sched_dep_time dep_delay arr_time
##    <int> <int> <int>    <int>          <int>     <dbl>    <int>
##  1  2013     1     1      517            515      2.00      830
##  2  2013     1     1      533            529      4.00      850
##  3  2013     1     1      542            540      2.00      923
##  4  2013     1     1      544            545     -1.00     1004
##  5  2013     1     1      554            600     -6.00      812
##  6  2013     1     1      554            558     -4.00      740
##  7  2013     1     1      555            600     -5.00      913
##  8  2013     1     1      557            600     -3.00      709
##  9  2013     1     1      557            600     -3.00      838
## 10  2013     1     1      558            600     -2.00      753
## # ... with 336,766 more rows, and 13 more variables: sched_arr_time <int>,
## #   arr_delay <dbl>, carrier <chr>, flight <int>, tailnum <chr>,
## #   origin <chr>, dest <chr>, air_time <dbl>, distance <dbl>, hour <dbl>,
## #   minute <dbl>, time_hour <dttm>, delta <dbl>

Which destination has the highest average delays?

flights %>%
  filter(!is.na(arr_delay)) %>%
  group_by(dest) %>%
  dplyr::summarize(Average_delay = mean(arr_delay), cases = n()) %>%
  filter(cases > 10) %>%
  arrange(desc(Average_delay))

## # A tibble: 101 x 3
##    dest  Average_delay cases
##    <chr>         <dbl> <int>
##  1 CAE            41.8   106
##  2 TUL            33.7   294
##  3 OKC            30.6   315
##  4 JAC            28.1    21
##  5 TYS            24.1   578
##  6 MSN            20.2   556
##  7 RIC            20.1  2346
##  8 CAK            19.7   842
##  9 DSM            19.0   523
## 10 GRR            18.2   728
## # ... with 91 more rows
…
On average, how do delays vary over the course of the day? (Hint: hour + minute/60)

flights %>%
  group_by(hour, minute) %>%
  dplyr::summarize(n = n(), mean = mean(na.omit(dep_delay)))

## # A tibble: 1,021 x 4
## # Groups:   hour [?]
##     hour minute     n     mean
##    <dbl>  <dbl> <int>    <dbl>
##  1  1.00   6.00     1  NaN    
##  2  5.00   0      341 -  3.14 
##  3  5.00   1.00     1 -  3.00 
##  4  5.00   5.00     2    2.00 
##  5  5.00  10.0      5    1.00 
##  6  5.00  15.0    208    1.53 
##  7  5.00  16.0      4 -  5.00 
##  8  5.00  17.0     28    5.11 
##  9  5.00  20.0      7 -  2.57 
## 10  5.00  25.0     37 -  0.703
## # ... with 1,011 more rows
